Khoa học dữ liệu với R - 30 Feature Engineering
…
           x
1 2022-01-01
2 2022-01-02
3 2022-01-03
4 2022-01-04
5 2022-01-05
6 2022-01-06

recipe(~x, df) %>% 
  step_date(x) %>% 
  prep %>% 
  bake(df)

# A tibble: 366 × 4
   x          x_dow x_month x_year
   <date>     <fct> <fct>    <int>
 1 2022-01-01 Sat   Jan       2022
 2 2022-01-02 Sun   Jan       2022
 3 2022-01-03 Mon   Jan       2022
 4 2022-01-04 Tue   Jan       2022
 5 2022-01-05 Wed   Jan       2022
 6 2022-01-06 Thu   Jan       2022
 7 2022-01-07 Fri   Jan       2022
 8 2022-01-08 Sat   Jan       2022
 9 2022-01-09 Sun   Jan       2022
10 2022-01-10 Mon   Jan       2022
# ℹ 356 more rows
…
