Khoa học dữ liệu với R - 45 Dự báo chuỗi thời gian với timetk
…
Tạo dữ liệu test

test_augmented <- test %>%
    tk_augment_timeseries_signature()
test_augmented

# A tibble: 184 × 30
   date         cnt index.num  diff  year year.iso  half quarter month month.xts
   <date>     <dbl>     <dbl> <dbl> <int>    <int> <int>   <int> <int>     <int>
 1 2012-07-01  5531    1.34e9    NA  2012     2012     2       3     7         6
 2 2012-07-02  6227    1.34e9 86400  2012     2012     2       3     7         6
 3 2012-07-03  6660    1.34e9 86400  2012     2012     2       3     7         6
 4 2012-07-04  7403    1.34e9 86400  2012     2012     2       3     7         6
 5 2012-07-05  6241    1.34e9 86400  2012     2012     2       3     7         6
 6 2012-07-06  6207    1.34e9 86400  2012     2012     2       3     7         6
 7 2012-07-07  4840    1.34e9 86400  2012     2012     2       3     7         6
 8 2012-07-08  4672    1.34e9 86400  2012     2012     2       3     7         6
 9 2012-07-09  6569    1.34e9 86400  2012     2012     2       3     7         6
10 2012-07-10  6290    1.34e9 86400  2012     2012     2       3     7         6
# ℹ 174 more rows
# ℹ 20 more variables: month.lbl <ord>, day <int>, hour <int>, minute <int>,
#   second <int>, hour12 <int>, am.pm <int>, wday <int>, wday.xts <int>,
#   wday.lbl <ord>, mday <int>, qday <int>, yday <int>, mweek <int>,
#   week <int>, week.iso <int>, week2 <int>, week3 <int>, week4 <int>,
#   mday7 <int>

yhat_test <- predict(fit_lm, newdata = test_augmented)
pred_test <- test %>%
    add_column(yhat = yhat_test) %>%
    mutate(.resid = cnt - yhat)
pred_test

# A tibble: 184 × 4
   date         cnt  yhat .resid
   <date>     <dbl> <dbl>  <dbl>
 1 2012-07-01  5531 6827. -1296.
 2 2012-07-02  6227 6840.  -613.
 3 2012-07-03  6660 7044.  -384.
 4 2012-07-04  7403 6905.   498.
 5 2012-07-05  6241 7136.  -895.
 6 2012-07-06  6207 7166.  -959.
 7 2012-07-07  4840 7167. -2327.
 8 2012-07-08  4672 6816. -2144.
 9 2012-07-09  6569 6828.  -259.
10 2012-07-10  6290 7033.  -743.
# ℹ 174 more rows
…
