Khoa học dữ liệu với R - 55 Spatial data
…
55.2 Cấu trúc dữ liệu spatial

Một loại định dạng dữ liệu được dùng phổ biến với spatial data là vector data. Loại dữ liệu này thường được lưu dưới dạng shape (.shp),để đọc định dạng này chúng ta sử dụng function read_sp trong package sf

library(sf)
library(tidyverse)
lnd_sport <- sf::read_sf("data/spatial-data/london_sport.shp")
print(lnd_sport)

Simple feature collection with 33 features and 4 fields
Geometry type: POLYGON
Dimension:     XY
Bounding box:  xmin: 503571.2 ymin: 155850.8 xmax: 561941.1 ymax: 200932.5
Projected CRS: OSGB36 / British National Grid
# A tibble: 33 × 5
   ons_label name                 Partic_Per Pop_2001                   geometry
   <chr>     <chr>                     <dbl>    <dbl>              <POLYGON [m]>
 1 00AF      Bromley                    21.7   295535 ((541177.7 173555.7, 5418…
 2 00BD      Richmond upon Thames       26.6   172330 ((522957.6 178071.3, 5236…
 3 00AS      Hillingdon                 21.5   243006 ((505114.9 184625.1, 5057…
 4 00AR      Havering                   17.9   224262 ((552108.3 194151.8, 5532…
 5 00AX      Kingston upon Thames       24.4   147271 ((519370.8 163657.4, 5182…
 6 00BF      Sutton                     19.3   179767 ((525554.3 166815.8, 5261…
 7 00AT      Hounslow                   16.9   212352 ((513062.8 178187.2, 5145…
 8 00BA      Merton                     20.7   187919 ((525102 166884.7, 524662…
 9 00BJ      Wandsworth                 26     260379 ((529635.2 176671.9, 5295…
10 00AH      Croydon                    17.6   330584 ((531781.8 170986.4, 5336…
# ℹ 23 more rows
…
