…
   library(sf)
   library(tidyverse)
   lnd_sport <- sf::read_sf("data/spatial-data/london_sport.shp")
   print(lnd_sport)

::

   ## Simple feature collection with 33 features and 4 fields
   ## geometry type:  POLYGON
   ## dimension:      XY
   ## bbox:           xmin: 503571.2 ymin: 155850.8 xmax: 561941.1 ymax: 200932.5
   ## epsg (SRID):    NA
   ## proj4string:    +proj=tmerc +lat_0=49 +lon_0=-2 +k=0.9996012717 +x_0=400000 +y_0=-100000 +ellps=airy +units=m +no_defs
   ## # A tibble: 33 x 5
   ##    ons_label name     Partic_Per Pop_2001                          geometry
   ##    <chr>     <chr>         <dbl>    <dbl>                     <POLYGON [m]>
   ##  1 00AF      Bromley        21.7   295535 ((541177.7 173555.7, 541872.2 17~
   ##  2 00BD      Richmon~       26.6   172330 ((522957.6 178071.3, 523604.7 17~
   ##  3 00AS      Hilling~       21.5   243006 ((505114.9 184625.1, 505700.3 18~
   ##  4 00AR      Havering       17.9   224262 ((552108.3 194151.8, 553221.9 19~
   ##  5 00AX      Kingsto~       24.4   147271 ((519370.8 163657.4, 518230.3 16~
   ##  6 00BF      Sutton         19.3   179767 ((525554.3 166815.8, 526154.9 16~
   ##  7 00AT      Hounslow       16.9   212352 ((513062.8 178187.2, 514592.3 17~
   ##  8 00BA      Merton         20.7   187919 ((525102 166884.7, 524662.5 1669~
   ##  9 00BJ      Wandswo~       26     260379 ((529635.2 176671.9, 529517.9 17~
   ## 10 00AH      Croydon        17.6   330584 ((531781.8 170986.4, 533693.2 17~
   ## # ... with 23 more rows
…
